geneScrapeR
…
pmids2 <- scrapeIDs (dataBase = 'pubmed',
                     term = '"prostate cancer"')
length(pmids2)
[1] 93140

pmids2[1:5]
[1] "28632693" "28632688" "28632505" "28632486" "28631917"

scrapeGenes

genes <- scrapeGenes (IDs = pmids[1:500], nCores = 7, nTries = 5)

genes

# A tibble: 155 x 2
  geneNames     n
      <chr> <int>
1     ABCA1     1
2    ABCC10     1
3      AKT1     3
4      AKT2     1
5      AKT3     1
# ... with 150 more rows
…
