geneScrapeR
…
---

## scrapeGenes

```r
genes <- scrapeGenes (IDs = pmids[1:100], nCores = 7, nTries = 5)

genes
```

```
# A tibble: 36 x 2
  geneNames     n
      <chr> <int>
1      AKT3     1
2        AR     3
3       ATM     1
4       BAX     1
5      BRAF     1
# ... with 31 more rows
```
…
